{
    "title": "갤러리 아이템",
    "items": [{
        "name": "item1",
        "itemClass": "item",
        "background": "./img/min/a_jumbotron_01_bg.jpg",
        "picClass": "obj typho",
        "pic": "./img/min/a_jumbotron_01_obj.png",
        "typho1": "./img/min/a_jumbotron_01_txt_01.png",
        "typho2": "./img/min/a_jumbotron_01_txt_02.png",
        "typho3": "./img/min/a_jumbotron_01_txt_03.png",
        "link": "./img/min/a_jumbotron_01_btn_01.png",
        "href": "javascript:;"
    }, {
        "name": "item2",
        "itemClass": "item",
        "background": "./img/min/a_jumbotron_02_bg.jpg",
        "picClass": "obj typho",
        "pic": "./img/min/a_jumbotron_02_obj.png",
        "typho1": "./img/min/a_jumbotron_02_txt_01.png",
        "typho2": "./img/min/a_jumbotron_02_txt_02.png",
        "typho3": "./img/min/a_jumbotron_02_txt_03.png",
        "link": "./img/min/a_jumbotron_01_btn_01.png",
        "href": "javascript:;"
    }, {
        "name": "item3",
        "itemClass": "item",
        "background": "./img/min/a_jumbotron_03_bg.jpg",
        "picClass": "obj nth-child-3 typho",
        "pic": "./img/min/a_jumbotron_03_obj.png",
        "typho1": "./img/min/a_jumbotron_03_txt_01.png",
        "typho2": "./img/min/a_jumbotron_03_txt_02.png",
        "typho3": "./img/min/a_jumbotron_03_txt_03.png",
        "link": "./img/min/a_jumbotron_01_btn_01.png",
        "href": "javascript:;"
    }, {
        "name": "item4",
        "itemClass": "item",
        "background": "./img/min/a_jumbotron_01_bg.jpg",
        "picClass": "obj typho",
        "pic": "./img/min/a_jumbotron_01_obj.png",
        "typho1": "./img/min/a_jumbotron_01_txt_01.png",
        "typho2": "./img/min/a_jumbotron_01_txt_02.png",
        "typho3": "./img/min/a_jumbotron_01_txt_03.png",
        "link": "./img/min/a_jumbotron_01_btn_01.png",
        "href": "javascript:;"
    }, {
        "name": "item5",
        "itemClass": "item",
        "background": "./img/min/a_jumbotron_02_bg.jpg",
        "picClass": "obj typho",
        "pic": "./img/min/a_jumbotron_02_obj.png",
        "typho1": "./img/min/a_jumbotron_02_txt_01.png",
        "typho2": "./img/min/a_jumbotron_02_txt_02.png",
        "typho3": "./img/min/a_jumbotron_02_txt_03.png",
        "link": "./img/min/a_jumbotron_01_btn_01.png",
        "href": "javascript:;"
    }, {
        "name": "item6",
        "itemClass": "item",
        "background": "./img/min/a_jumbotron_03_bg.jpg",
        "picClass": "obj nth-child-3 typho",
        "pic": "./img/min/a_jumbotron_03_obj.png",
        "typho1": "./img/min/a_jumbotron_03_txt_01.png",
        "typho2": "./img/min/a_jumbotron_03_txt_02.png",
        "typho3": "./img/min/a_jumbotron_03_txt_03.png",
        "link": "./img/min/a_jumbotron_01_btn_01.png",
        "href": "javascript:;"
    }]
}