{
    "title": "갤러리 아이템",
    "items": [{
        "category": "LAUNCHING",
        "subject": "파스퇴르몰1",
        "classname": "item_01",
        "src": "./img/min/a_popup_item.png",
        "thumb1": "http://epasscni.com/img/custom/thumb_louis_a.gif",
        "thumb2": "http://epasscni.com/img/custom/snapshot_ls.png",
        "thumb3": "http://epasscni.com/img/custom/snapshot_ls.png",
        "link": "javascript:;",
        "desc": "Web Award Korea<br />루이까또즈 직영몰 구축<br />Web Award Korea<br />루이까또즈 직영몰 구축<br />Web Award Korea<br />루이까또즈 직영몰 구축<br />",
        "longdesc": "이패스씨앤아이가 창사 3년만인 2014년에 드디어 웹어워드코리아 패션쇼핑몰 분야 대상을 수상하는 쾌거를 이루었습니다. 석진옥 PM님과 전문 TFT 구성원들의 노고가 헛되지 않고 결실을 맺어 회사의 밝은 미래를 증명해주셨습니다. 2015년에는 더욱 더 행복하고 즐거운 일이 가득한 이패스씨앤아이를 위해 모두 파이팅합시다.",
        "date": "2014-11-12",
        "client": "태진인터내셔날"
    }, {
        "category": "LAUNCHING",
        "subject": "파스퇴르몰2",
        "classname": "item_02",
        "src": "./img/min/a_popup_item_02.png",
        "thumb1": "http://epasscni.com/img/custom/snapshot_ls.png",
        "thumb2": "http://epasscni.com/img/custom/snapshot_ls.png",
        "thumb3": "http://epasscni.com/img/custom/snapshot_ls.png",
        "link": "javascript:;",
        "desc": "Web Award Korea<br />루이까또즈 직영몰 구축",
        "longdesc": "이패스씨앤아이가 창사 3년만인 2014년에 드디어 웹어워드코리아 패션쇼핑몰 분야 대상을 수상하는 쾌거를 이루었습니다. 석진옥 PM님과 전문 TFT 구성원들의 노고가 헛되지 않고 결실을 맺어 회사의 밝은 미래를 증명해주셨습니다. 2015년에는 더욱 더 행복하고 즐거운 일이 가득한 이패스씨앤아이를 위해 모두 파이팅합시다.",
        "date": "2014-11-12",
        "client": "태진인터내셔날"
    }, {
        "category": "LAUNCHING",
        "subject": "파스퇴르몰1",
        "classname": "item_01",
        "src": "./img/min/a_popup_item.png",
        "thumb1": "http://epasscni.com/img/custom/thumb_louis_a.gif",
        "thumb2": "http://epasscni.com/img/custom/snapshot_ls.png",
        "thumb3": "http://epasscni.com/img/custom/snapshot_ls.png",
        "link": "javascript:;",
        "desc": "Web Award Korea<br />루이까또즈 직영몰 구축<br />Web Award Korea<br />루이까또즈 직영몰 구축<br />Web Award Korea<br />루이까또즈 직영몰 구축<br />",
        "longdesc": "이패스씨앤아이가 창사 3년만인 2014년에 드디어 웹어워드코리아 패션쇼핑몰 분야 대상을 수상하는 쾌거를 이루었습니다. 석진옥 PM님과 전문 TFT 구성원들의 노고가 헛되지 않고 결실을 맺어 회사의 밝은 미래를 증명해주셨습니다. 2015년에는 더욱 더 행복하고 즐거운 일이 가득한 이패스씨앤아이를 위해 모두 파이팅합시다.",
        "date": "2014-11-12",
        "client": "태진인터내셔날"
    }, {
        "category": "LAUNCHING",
        "subject": "파스퇴르몰2",
        "classname": "item_02",
        "src": "./img/min/a_popup_item_02.png",
        "thumb1": "http://epasscni.com/img/custom/snapshot_ls.png",
        "thumb2": "http://epasscni.com/img/custom/snapshot_ls.png",
        "thumb3": "http://epasscni.com/img/custom/snapshot_ls.png",
        "link": "javascript:;",
        "desc": "Web Award Korea<br />루이까또즈 직영몰 구축",
        "longdesc": "이패스씨앤아이가 창사 3년만인 2014년에 드디어 웹어워드코리아 패션쇼핑몰 분야 대상을 수상하는 쾌거를 이루었습니다. 석진옥 PM님과 전문 TFT 구성원들의 노고가 헛되지 않고 결실을 맺어 회사의 밝은 미래를 증명해주셨습니다. 2015년에는 더욱 더 행복하고 즐거운 일이 가득한 이패스씨앤아이를 위해 모두 파이팅합시다.",
        "date": "2014-11-12",
        "client": "태진인터내셔날"
    }]
}